…
We identfied that there exists an issue with the creation of a factor variable for property types. There are too much categories in order to generate reasonable factors. So, we will analyze how much the share each category has. Best case would be that the majority of the property type share is done with a small number (20% of factors account 80% of the total share). If that is the case we can just summarize the rest in a new category calles “other”.

# Identify the amount of each property type
most_com_properties <- athens_data_clean %>%
    count(property_type) %>%
    mutate(percentage = n/sum(n)*100)%>%
    arrange(desc(n))

most_com_properties

## # A tibble: 26 x 3
##    property_type          n percentage
##    <chr>              <int>      <dbl>
##  1 Apartment           9677     85.5  
##  2 House                386      3.41 
##  3 Condominium          261      2.31 
##  4 Serviced apartment   187      1.65 
##  5 Loft                 180      1.59 
##  6 Aparthotel           139      1.23 
##  7 Hotel                135      1.19 
##  8 Boutique hotel       120      1.06 
##  9 Bed and breakfast     49      0.433
## 10 Hostel                38      0.336
## # ... with 16 more rows
…
