Donald Trump's Approval Rating · Portfolio Website for Mayssa Maring
…
  summarise(
    week = week,
    N = n(),
    std_dev = sd(approve, na.rm=F),
    net_approval_rate = mean(approve) - mean(disapprove)) %>% 
  summarise(
    week = week,
    net_approval_rate = net_approval_rate,
    N = N,
    std_dev = std_dev,
    upper_ci = mean(net_approval_rate) + 1.96*(std_dev/sqrt(N)),
    lower_ci = mean(net_approval_rate) - 1.96*(std_dev/sqrt(N))
  )

## # A tibble: 15,619 x 6
##     week net_approval_rate     N std_dev upper_ci lower_ci
##    <dbl>             <dbl> <int>   <dbl>    <dbl>    <dbl>
##  1    NA             -11.1 15619    3.54    -11.0    -11.1
##  2    NA             -11.1 15619    3.54    -11.0    -11.1
##  3    NA             -11.1 15619    3.54    -11.0    -11.1
##  4    NA             -11.1 15619    3.54    -11.0    -11.1
##  5    NA             -11.1 15619    3.54    -11.0    -11.1
##  6    NA             -11.1 15619    3.54    -11.0    -11.1
##  7    NA             -11.1 15619    3.54    -11.0    -11.1
##  8    NA             -11.1 15619    3.54    -11.0    -11.1
##  9    NA             -11.1 15619    3.54    -11.0    -11.1
## 10    NA             -11.1 15619    3.54    -11.0    -11.1
## # ... with 15,609 more rows
…
