…
Loading libraries:

General Social Survey (GSS)

Loading data file:

setwd("C:/Users/mayss/Documents/LBS_Term1/Data Analytics for Finance/my_website/content/projects/project4")

gss <- read_csv((file="data/smallgss2016.csv"), 
                na = c("", "Don't know",
                       "No answer", "Not applicable"))

print(gss)

## # A tibble: 2,867 x 7
##    emailmin emailhr snapchat instagrm twitter sex    degree        
##    <chr>    <chr>   <chr>    <chr>    <chr>   <chr>  <chr>         
##  1 0        12      NA       NA       NA      Male   Bachelor      
##  2 30       0       No       No       No      Male   High school   
##  3 NA       NA      No       No       No      Male   Bachelor      
##  4 10       0       NA       NA       NA      Female High school   
##  5 NA       NA      Yes      Yes      No      Female Graduate      
##  6 0        2       No       Yes      No      Female Junior college
##  7 0        40      NA       NA       NA      Male   High school   
##  8 NA       NA      Yes      Yes      No      Female High school   
##  9 0        0       NA       NA       NA      Male   High school   
## 10 NA       NA      No       No       No      Male   Junior college
## # ... with 2,857 more rows
Instagram and Snapchat, by sex

Creation of a new variable, snap_insta that is Yes if the respondent reported using any of Snapchat (snapchat) or Instagram (instagrm), and No if not.

snap_insta <- gss %>% 
  mutate(
    snap_or_insta = ifelse( 
      snapchat=="Yes" | instagrm=="Yes", "Yes",
      ifelse(snapchat=="No" | instagrm=="No", "No", NA))
    
  )

print(snap_insta)

## # A tibble: 2,867 x 8
##    emailmin emailhr snapchat instagrm twitter sex    degree        snap_or_insta
##    <chr>    <chr>   <chr>    <chr>    <chr>   <chr>  <chr>         <chr>        
##  1 0        12      NA       NA       NA      Male   Bachelor      <NA>         
##  2 30       0       No       No       No      Male   High school   No           
##  3 NA       NA      No       No       No      Male   Bachelor      No           
##  4 10       0       NA       NA       NA      Female High school   <NA>         
##  5 NA       NA      Yes      Yes      No      Female Graduate      Yes          
##  6 0        2       No       Yes      No      Female Junior colle~ Yes          
##  7 0        40      NA       NA       NA      Male   High school   <NA>         
##  8 NA       NA      Yes      Yes      No      Female High school   Yes          
##  9 0        0       NA       NA       NA      Male   High school   <NA>         
## 10 NA       NA      No       No       No      Male   Junior colle~ No           
## # ... with 2,857 more rows
…
